Queries · CancerImagingArchive.jl
…
┌ Warning: thread = 1 warning: only found 1 / 2 columns around data row: 25. Filling remaining columns with `missing`
└ @ CSV ~/.julia/packages/CSV/aoJqo/src/file.jl:586
┌ Warning: thread = 1 warning: only found 1 / 2 columns around data row: 26. Filling remaining columns with `missing`
└ @ CSV ~/.julia/packages/CSV/aoJqo/src/file.jl:586
┌ Warning: thread = 1 warning: only found 1 / 2 columns around data row: 27. Filling remaining columns with `missing`
└ @ CSV ~/.julia/packages/CSV/aoJqo/src/file.jl:586
┌ Warning: thread = 1 warning: only found 1 / 2 columns around data row: 28. Filling remaining columns with `missing`
└ @ CSV ~/.julia/packages/CSV/aoJqo/src/file.jl:586
┌ Warning: thread = 1 warning: only found 1 / 2 columns around data row: 30. Filling remaining columns with `missing`
└ @ CSV ~/.julia/packages/CSV/aoJqo/src/file.jl:586
┌ Warning: thread = 1 warning: only found 1 / 2 columns around data row: 31. Filling remaining columns with `missing`
└ @ CSV ~/.julia/packages/CSV/aoJqo/src/file.jl:586
┌ Warning: thread = 1 warning: only found 1 / 2 columns around data row: 31. Filling remaining columns with `missing`
└ @ CSV ~/.julia/packages/CSV/aoJqo/src/file.jl:586
33×2 DataFrame
 Row │ Manufacturer                       Column2
     │ String                             String15
─────┼─────────────────────────────────────────────────
   1 │ ADAC                               missing
   2 │ Barco                              missing
   3 │ Bayer HealthCare LLC               missing
   4 │ Canon Medical Systems              missing
   5 │ CMS                                 Inc.
   6 │ CPS                                missing
   7 │ ELEKTA / MIM Software              missing
   8 │ GE MEDICAL SYSTEMS                 missing
  ⋮  │                 ⋮                       ⋮
  27 │ TOSHIBA                            missing
  28 │ Unknown manufacturer               missing
  29 │ Varian Imaging Laboratories         Switzerland
  30 │ Varian Medical Systems             missing
  31 │ Varian Medical Systems / MIM Sof…  missing
  32 │ Vital Images                        Inc
  33 │ Vital Images                        Inc.
                                        18 rows omitted
…
Patients added after specific date
In large collections, it can be useful to query patients that were added after a date specified as YYYY/MM/DD. This is accomplished by:

julia> tcia_newpatients(collection = "TCGA-GBM", date = "2015/01/01")0×0 DataFrame
Patient studies
A list of visits/studies for a given collection/patient is obtained by:

julia> tcia_studies(collection = "TCGA-THCA")┌ Warning: thread = 1 warning: parsed expected 15 columns, but didn't reach end of line around data row: 7. Parsing extra columns and widening final columnset
└ @ CSV ~/.julia/packages/CSV/aoJqo/src/file.jl:587
┌ Warning: thread = 1 warning: parsed expected 15 columns, but didn't reach end of line around data row: 7. Parsing extra columns and widening final columnset
└ @ CSV ~/.julia/packages/CSV/aoJqo/src/file.jl:587
┌ Warning: thread = 1 warning: parsed expected 15 columns, but didn't reach end of line around data row: 7. Parsing extra columns and widening final columnset
└ @ CSV ~/.julia/packages/CSV/aoJqo/src/file.jl:587
7×16 DataFrame
 Row │ StudyInstanceUID                   StudyDate              StudyDescript ⋯
     │ String                             String31               String        ⋯
─────┼──────────────────────────────────────────────────────────────────────────
   1 │ 1.3.6.1.4.1.14519.5.2.1.8421.401…  2004-09-26 00:00:00.0  Outside Read  ⋯
   2 │ 1.3.6.1.4.1.14519.5.2.1.8421.401…  2004-05-27 00:00:00.0  Outside Read
   3 │ 1.3.6.1.4.1.14519.5.2.1.8421.401…  2004-06-13 00:00:00.0  PET/CT Tumor
   4 │ 1.3.6.1.4.1.14519.5.2.1.8421.401…  2004-07-21 00:00:00.0  CT NECK SOFT
   5 │ 1.3.6.1.4.1.14519.5.2.1.8421.401…  2004-07-05 00:00:00.0  Outside Read  ⋯
   6 │ 1.3.6.1.4.1.14519.5.2.1.3023.401…  1996-04-14 00:00:00.0  CT NECK W/ CO
   7 │ 1.3.6.1.4.1.14519.5.2.1.3023.401…  1996-03-09 00:00:00.0  CT NECK W/ CO
                                                              14 columns omitted
julia> tcia_studies(patient = "TCGA-QQ-A8VF")2×15 DataFrame
 Row │ StudyInstanceUID                   StudyDate              StudyDescript ⋯
     │ String                             String31               String31      ⋯
─────┼──────────────────────────────────────────────────────────────────────────
   1 │ 1.3.6.1.4.1.14519.5.2.1.3023.402…  1997-11-26 00:00:00.0  MRI LOWER EXT ⋯
   2 │ 1.3.6.1.4.1.14519.5.2.1.3023.402…  1997-11-29 00:00:00.0  CT CHEST W/ C
                                                              13 columns omitted
If the unique identifier (UID) for a study is known (a.k.a. StudyInstanceUID), then that can also be used

julia> tcia_studies(study = "1.3.6.1.4.1.14519.5.2.1.3023.4024.298690116465423805879206377806")1×15 DataFrame
 Row │ StudyInstanceUID                   StudyDate              StudyDescript ⋯
     │ String                             String31               String31      ⋯
─────┼──────────────────────────────────────────────────────────────────────────
   1 │ 1.3.6.1.4.1.14519.5.2.1.3023.402…  1997-11-29 00:00:00.0  CT CHEST W/ C ⋯
                                                              13 columns omitted
Patient studies added after specific data
A list of visits/studies that were added after some date, formatted by YYYY-MM-DD, can be obtained by:

julia> tcia_newstudies(collection="TCGA-GBM", date="2015-01-01")0×0 DataFrame
Imaging series
Each patient study consists of one or more imaging series which can be obtained by:

julia> tcia_series(collection = "TCGA-THCA")28×20 DataFrame
 Row │ SeriesInstanceUID                  StudyInstanceUID                   M ⋯
     │ String                             String                             S ⋯
─────┼──────────────────────────────────────────────────────────────────────────
   1 │ 1.3.6.1.4.1.14519.5.2.1.8421.401…  1.3.6.1.4.1.14519.5.2.1.8421.401…  C ⋯
   2 │ 1.3.6.1.4.1.14519.5.2.1.8421.401…  1.3.6.1.4.1.14519.5.2.1.8421.401…  C
   3 │ 1.3.6.1.4.1.14519.5.2.1.8421.401…  1.3.6.1.4.1.14519.5.2.1.8421.401…  C
   4 │ 1.3.6.1.4.1.14519.5.2.1.8421.401…  1.3.6.1.4.1.14519.5.2.1.8421.401…  C
   5 │ 1.3.6.1.4.1.14519.5.2.1.8421.401…  1.3.6.1.4.1.14519.5.2.1.8421.401…  C ⋯
   6 │ 1.3.6.1.4.1.14519.5.2.1.8421.401…  1.3.6.1.4.1.14519.5.2.1.8421.401…  C
   7 │ 1.3.6.1.4.1.14519.5.2.1.8421.401…  1.3.6.1.4.1.14519.5.2.1.8421.401…  C
   8 │ 1.3.6.1.4.1.14519.5.2.1.8421.401…  1.3.6.1.4.1.14519.5.2.1.8421.401…  C
  ⋮  │                 ⋮                                  ⋮                    ⋱
  22 │ 1.3.6.1.4.1.14519.5.2.1.8421.401…  1.3.6.1.4.1.14519.5.2.1.8421.401…  P ⋯
  23 │ 1.3.6.1.4.1.14519.5.2.1.8421.401…  1.3.6.1.4.1.14519.5.2.1.8421.401…  P
  24 │ 1.3.6.1.4.1.14519.5.2.1.8421.401…  1.3.6.1.4.1.14519.5.2.1.8421.401…  P
  25 │ 1.3.6.1.4.1.14519.5.2.1.8421.401…  1.3.6.1.4.1.14519.5.2.1.8421.401…  P
  26 │ 1.3.6.1.4.1.14519.5.2.1.8421.401…  1.3.6.1.4.1.14519.5.2.1.8421.401…  P ⋯
  27 │ 1.3.6.1.4.1.14519.5.2.1.3023.401…  1.3.6.1.4.1.14519.5.2.1.3023.401…  C
  28 │ 1.3.6.1.4.1.14519.5.2.1.3023.401…  1.3.6.1.4.1.14519.5.2.1.3023.401…  C
                                                  18 columns and 13 rows omitted
…
┌ Warning: thread = 1 warning: only found 20 / 26 columns around data row: 338. Filling remaining columns with `missing`
└ @ CSV ~/.julia/packages/CSV/aoJqo/src/file.jl:586
┌ Warning: thread = 1 warning: only found 20 / 26 columns around data row: 339. Filling remaining columns with `missing`
└ @ CSV ~/.julia/packages/CSV/aoJqo/src/file.jl:586
┌ Warning: thread = 1 warning: only found 20 / 26 columns around data row: 340. Filling remaining columns with `missing`
└ @ CSV ~/.julia/packages/CSV/aoJqo/src/file.jl:586
┌ Warning: thread = 1: too many warnings, silencing any further warnings
└ @ CSV ~/.julia/packages/CSV/aoJqo/src/file.jl:591
┌ Warning: thread = 1 warning: parsed expected 26 columns, but didn't reach end of line around data row: 403. Parsing extra columns and widening final columnset
└ @ CSV ~/.julia/packages/CSV/aoJqo/src/file.jl:587
┌ Warning: thread = 1 warning: parsed expected 26 columns, but didn't reach end of line around data row: 403. Parsing extra columns and widening final columnset
└ @ CSV ~/.julia/packages/CSV/aoJqo/src/file.jl:587
┌ Warning: thread = 1 warning: parsed expected 26 columns, but didn't reach end of line around data row: 403. Parsing extra columns and widening final columnset
└ @ CSV ~/.julia/packages/CSV/aoJqo/src/file.jl:587
2068×27 DataFrame
  Row │ SeriesInstanceUID                  StudyInstanceUID                    ⋯
      │ String                             String                              ⋯
──────┼─────────────────────────────────────────────────────────────────────────
    1 │ 1.3.6.1.4.1.14519.5.2.1.6279.600…  1.3.6.1.4.1.14519.5.2.1.6279.600…   ⋯
    2 │ 1.3.6.1.4.1.14519.5.2.1.6279.600…  1.3.6.1.4.1.14519.5.2.1.6279.600…
    3 │ 1.3.6.1.4.1.14519.5.2.1.6279.600…  1.3.6.1.4.1.14519.5.2.1.6279.600…
    4 │ 1.3.6.1.4.1.14519.5.2.1.6279.600…  1.3.6.1.4.1.14519.5.2.1.6279.600…
    5 │ 1.3.6.1.4.1.14519.5.2.1.6279.600…  1.3.6.1.4.1.14519.5.2.1.6279.600…   ⋯
    6 │ 1.3.6.1.4.1.14519.5.2.1.6279.600…  1.3.6.1.4.1.14519.5.2.1.6279.600…
    7 │ 1.3.6.1.4.1.14519.5.2.1.6279.600…  1.3.6.1.4.1.14519.5.2.1.6279.600…
    8 │ 1.3.6.1.4.1.14519.5.2.1.6279.600…  1.3.6.1.4.1.14519.5.2.1.6279.600…
  ⋮   │                 ⋮                                  ⋮                   ⋱
 2062 │ 1.3.6.1.4.1.14519.5.2.1.1600.120…  1.3.6.1.4.1.14519.5.2.1.1600.120…   ⋯
 2063 │ 1.3.6.1.4.1.14519.5.2.1.1600.120…  1.3.6.1.4.1.14519.5.2.1.1600.120…
 2064 │ 1.3.6.1.4.1.14519.5.2.1.1600.120…  1.3.6.1.4.1.14519.5.2.1.1600.120…
 2065 │ 1.3.6.1.4.1.14519.5.2.1.1600.120…  1.3.6.1.4.1.14519.5.2.1.1600.120…
 2066 │ 1.3.6.1.4.1.14519.5.2.1.1600.120…  1.3.6.1.4.1.14519.5.2.1.1600.120…   ⋯
 2067 │ 1.3.6.1.4.1.14519.5.2.1.1600.120…  1.3.6.1.4.1.14519.5.2.1.1600.120…
 2068 │ 1.3.6.1.4.1.14519.5.2.1.1600.120…  1.3.6.1.4.1.14519.5.2.1.1600.120…
                                                25 columns and 2053 rows omitted
…
